blog - tidyquantを使ってみる
…
library(ggthemes)

基礎的な関数

tq_index_options()

[1] "DOW"       "DOWGLOBAL" "SP400"     "SP500"     "SP600"    

tq_index("SP500")

Getting holdings for SP500

# A tibble: 503 × 8
   symbol company      identifier sedol weight sector shares_held local_currency
   <chr>  <chr>        <chr>      <chr>  <dbl> <chr>        <dbl> <chr>         
 1 AAPL   APPLE INC    037833100  2046… 0.0763 -        184285585 USD           
 2 MSFT   MICROSOFT C… 594918104  2588… 0.0653 -         90093568 USD           
 3 NVDA   NVIDIA CORP  67066G104  2379… 0.0646 -        298170415 USD           
 4 AMZN   AMAZON.COM … 023135106  2000… 0.0419 -        113217550 USD           
 5 META   META PLATFO… 30303M102  B7TL… 0.0261 -         26479184 USD           
 6 TSLA   TESLA INC    88160R101  B616… 0.0243 -         33627847 USD           
 7 GOOGL  ALPHABET IN… 02079K305  BYVY… 0.0222 -         71010080 USD           
 8 AVGO   BROADCOM INC 11135F101  BDZ7… 0.0204 -         56414855 USD           
 9 GOOG   ALPHABET IN… 02079K107  BYY8… 0.0183 -         58211687 USD           
10 BRK-B  BERKSHIRE H… 084670702  2073… 0.0165 -         22200782 USD           
# ℹ 493 more rows
…
# 取得可能データ一覧
tq_get_options()

 [1] "stock.prices"       "stock.prices.japan" "dividends"         
 [4] "splits"             "economic.data"      "quandl"            
 [7] "quandl.datatable"   "tiingo"             "tiingo.iex"        
[10] "tiingo.crypto"      "alphavantager"      "alphavantage"      
[13] "rblpapi"           

株価

appl_prices <- tq_get("AAPL", get = "stock.prices", from = "1990-01-01")
appl_prices

# A tibble: 8,811 × 8
   symbol date        open  high   low close    volume adjusted
   <chr>  <date>     <dbl> <dbl> <dbl> <dbl>     <dbl>    <dbl>
 1 AAPL   1990-01-02 0.315 0.335 0.312 0.333 183198400    0.262
 2 AAPL   1990-01-03 0.339 0.339 0.335 0.335 207995200    0.264
 3 AAPL   1990-01-04 0.342 0.346 0.333 0.336 221513600    0.265
 4 AAPL   1990-01-05 0.337 0.342 0.330 0.337 123312000    0.266
 5 AAPL   1990-01-08 0.335 0.339 0.330 0.339 101572800    0.267
 6 AAPL   1990-01-09 0.339 0.339 0.330 0.336  86139200    0.265
 7 AAPL   1990-01-10 0.336 0.336 0.319 0.321 199718400    0.253
 8 AAPL   1990-01-11 0.324 0.324 0.308 0.308 211052800    0.243
 9 AAPL   1990-01-12 0.306 0.310 0.301 0.308 171897600    0.243
10 AAPL   1990-01-15 0.308 0.319 0.306 0.306 161739200    0.241
# ℹ 8,801 more rows
…
FANG

# A tibble: 4,032 × 8
   symbol date        open  high   low close    volume adjusted
   <chr>  <date>     <dbl> <dbl> <dbl> <dbl>     <dbl>    <dbl>
 1 META   2013-01-02  27.4  28.2  27.4  28    69846400     28  
 2 META   2013-01-03  27.9  28.5  27.6  27.8  63140600     27.8
 3 META   2013-01-04  28.0  28.9  27.8  28.8  72715400     28.8
 4 META   2013-01-07  28.7  29.8  28.6  29.4  83781800     29.4
 5 META   2013-01-08  29.5  29.6  28.9  29.1  45871300     29.1
 6 META   2013-01-09  29.7  30.6  29.5  30.6 104787700     30.6
 7 META   2013-01-10  30.6  31.5  30.3  31.3  95316400     31.3
 8 META   2013-01-11  31.3  32.0  31.1  31.7  89598000     31.7
 9 META   2013-01-14  32.1  32.2  30.6  31.0  98892800     31.0
10 META   2013-01-15  30.6  31.7  29.9  30.1 173242600     30.1
# ℹ 4,022 more rows
…
